…
    ## No encoding supplied: defaulting to UTF-8.

    ## Warning: `tbl_df()` is deprecated as of dplyr 1.0.0.
    ## Please use `tibble::as_tibble()` instead.
    ## This warning is displayed once every 8 hours.
    ## Call `lifecycle::last_warnings()` to see where this warning was generated.

    ## # A tibble: 38 x 7
    ##    data.id data.firstSeaso… data.lastSeason… data.mostRecent… data.teamCommon…
    ##      <int>            <int>            <int>            <int> <chr>           
    ##  1       1         19171918               NA                8 Canadiens       
    ##  2       2         19171918         19171918               41 Wanderers       
    ##  3       3         19171918         19341935               45 Eagles          
    ##  4       4         19191920         19241925               37 Tigers          
    ##  5       5         19171918               NA               10 Maple Leafs     
    ##  6       6         19241925               NA                6 Bruins          
    ##  7       7         19241925         19371938               43 Maroons         
    ##  8       8         19251926         19411942               51 Americans       
    ##  9       9         19251926         19301931               39 Quakers         
    ## 10      10         19261927               NA                3 Rangers         
    ## # … with 28 more rows, and 2 more variables: data.teamPlaceName <chr>,
    ## #   total <int>
…
``` r
#  a function here to get the franchise-team-totals data sets by specifying any id number
base_url_total<- "https://records.nhl.com/site/api/franchise-team-totals"
get_data_totals <- function(ID=NULL){
json<- GET(base_url_total) %>% content("text") %>% fromJSON(flatten = TRUE) %>% as.data.frame() 
if(is.null(ID)==FALSE){json<-filter(json,data.franchiseId==ID)}
return(tbl_df(json))
}
# Test if the function works
get_data_totals()# It works well.
```

    ## No encoding supplied: defaulting to UTF-8.

    ## # A tibble: 105 x 31
    ##    data.id data.activeFran… data.firstSeaso… data.franchiseId data.gameTypeId
    ##      <int>            <int>            <int>            <int>           <int>
    ##  1       1                1         19821983               23               2
    ##  2       2                1         19821983               23               3
    ##  3       3                1         19721973               22               2
    ##  4       4                1         19721973               22               3
    ##  5       5                1         19261927               10               2
    ##  6       6                1         19261927               10               3
    ##  7       7                1         19671968               16               3
    ##  8       8                1         19671968               16               2
    ##  9       9                1         19671968               17               2
    ## 10      10                1         19671968               17               3
    ## # … with 95 more rows, and 26 more variables: data.gamesPlayed <int>,
    ## #   data.goalsAgainst <int>, data.goalsFor <int>, data.homeLosses <int>,
    ## #   data.homeOvertimeLosses <int>, data.homeTies <int>, data.homeWins <int>,
    ## #   data.lastSeasonId <int>, data.losses <int>, data.overtimeLosses <int>,
    ## #   data.penaltyMinutes <int>, data.pointPctg <dbl>, data.points <int>,
    ## #   data.roadLosses <int>, data.roadOvertimeLosses <int>, data.roadTies <int>,
    ## #   data.roadWins <int>, data.shootoutLosses <int>, data.shootoutWins <int>,
    ## #   data.shutouts <int>, data.teamId <int>, data.teamName <chr>,
    ## #   data.ties <int>, data.triCode <chr>, data.wins <int>, total <int>
…
``` r
stats<-function(ID=NULL, modifier=NULL){
   if (is.null(ID)){url<-"https://statsapi.web.nhl.com/api/v1/teams"}
     else {url<-paste0("https://statsapi.web.nhl.com/api/v1/teams/",ID)}
   json_stats<-if(is.null(modifier)){url}
         else {paste0(url,modifier)}
   json_stats <- GET(json_stats) %>% content("text") %>% fromJSON(flatten = TRUE)%>%as.data.frame() 
  return(tbl_df(json_stats))
}
# test if the function works
stats(ID=NULL,'?expand=team.roster')# It works well.
```

    ## # A tibble: 31 x 32
    ##    copyright teams.id teams.name teams.link teams.abbreviat… teams.teamName
    ##    <chr>        <int> <chr>      <chr>      <chr>            <chr>         
    ##  1 NHL and …        1 New Jerse… /api/v1/t… NJD              Devils        
    ##  2 NHL and …        2 New York … /api/v1/t… NYI              Islanders     
    ##  3 NHL and …        3 New York … /api/v1/t… NYR              Rangers       
    ##  4 NHL and …        4 Philadelp… /api/v1/t… PHI              Flyers        
    ##  5 NHL and …        5 Pittsburg… /api/v1/t… PIT              Penguins      
    ##  6 NHL and …        6 Boston Br… /api/v1/t… BOS              Bruins        
    ##  7 NHL and …        7 Buffalo S… /api/v1/t… BUF              Sabres        
    ##  8 NHL and …        8 Montréal … /api/v1/t… MTL              Canadiens     
    ##  9 NHL and …        9 Ottawa Se… /api/v1/t… OTT              Senators      
    ## 10 NHL and …       10 Toronto M… /api/v1/t… TOR              Maple Leafs   
    ## # … with 21 more rows, and 26 more variables: teams.locationName <chr>,
    ## #   teams.firstYearOfPlay <chr>, teams.shortName <chr>,
    ## #   teams.officialSiteUrl <chr>, teams.franchiseId <int>, teams.active <lgl>,
    ## #   teams.venue.name <chr>, teams.venue.link <chr>, teams.venue.city <chr>,
    ## #   teams.venue.id <int>, teams.venue.timeZone.id <chr>,
    ## #   teams.venue.timeZone.offset <int>, teams.venue.timeZone.tz <chr>,
    ## #   teams.division.id <int>, teams.division.name <chr>,
    ## #   teams.division.nameShort <chr>, teams.division.link <chr>,
    ## #   teams.division.abbreviation <chr>, teams.conference.id <int>,
…
``` r
# franchise data
franchise_data <- get_franchise()
```

    ## No encoding supplied: defaulting to UTF-8.

``` r
franchise_data<- franchise_data %>% rename(data.franchiseId=data.id) 
franchise_data
```

    ## # A tibble: 38 x 7
    ##    data.franchiseId data.firstSeaso… data.lastSeason… data.mostRecent…
    ##               <int>            <int>            <int>            <int>
    ##  1                1         19171918               NA                8
    ##  2                2         19171918         19171918               41
    ##  3                3         19171918         19341935               45
    ##  4                4         19191920         19241925               37
    ##  5                5         19171918               NA               10
    ##  6                6         19241925               NA                6
    ##  7                7         19241925         19371938               43
    ##  8                8         19251926         19411942               51
    ##  9                9         19251926         19301931               39
    ## 10               10         19261927               NA                3
    ## # … with 28 more rows, and 3 more variables: data.teamCommonName <chr>,
    ## #   data.teamPlaceName <chr>, total <int>

``` r
# franchise_total data
franchise_total <- get_data_totals() 
```

    ## No encoding supplied: defaulting to UTF-8.

``` r
franchise_total
```

    ## # A tibble: 105 x 31
    ##    data.id data.activeFran… data.firstSeaso… data.franchiseId data.gameTypeId
    ##      <int>            <int>            <int>            <int>           <int>
    ##  1       1                1         19821983               23               2
    ##  2       2                1         19821983               23               3
    ##  3       3                1         19721973               22               2
    ##  4       4                1         19721973               22               3
    ##  5       5                1         19261927               10               2
    ##  6       6                1         19261927               10               3
    ##  7       7                1         19671968               16               3
    ##  8       8                1         19671968               16               2
    ##  9       9                1         19671968               17               2
    ## 10      10                1         19671968               17               3
    ## # … with 95 more rows, and 26 more variables: data.gamesPlayed <int>,
    ## #   data.goalsAgainst <int>, data.goalsFor <int>, data.homeLosses <int>,
    ## #   data.homeOvertimeLosses <int>, data.homeTies <int>, data.homeWins <int>,
    ## #   data.lastSeasonId <int>, data.losses <int>, data.overtimeLosses <int>,
    ## #   data.penaltyMinutes <int>, data.pointPctg <dbl>, data.points <int>,
    ## #   data.roadLosses <int>, data.roadOvertimeLosses <int>, data.roadTies <int>,
    ## #   data.roadWins <int>, data.shootoutLosses <int>, data.shootoutWins <int>,
    ## #   data.shutouts <int>, data.teamId <int>, data.teamName <chr>,
    ## #   data.ties <int>, data.triCode <chr>, data.wins <int>, total <int>
…
